module gitlab.com/wtfismyip/wtfismyip

go 1.23.3

require (
	github.com/caddyserver/certmagic v0.21.4
	github.com/cyphar/filepath-securejoin v0.3.4
	github.com/go-redis/redis/v8 v8.11.5
	github.com/gorilla/mux v1.8.1
	github.com/oschwald/geoip2-golang v1.11.0
	github.com/prometheus/client_golang v1.20.5
	github.com/slok/go-http-metrics v0.13.0
)

require (
	github.com/beorn7/perks v1.0.1 // indirect
	github.com/caddyserver/zerossl v0.1.3 // indirect
	github.com/cespare/xxhash/v2 v2.3.0 // indirect
	github.com/dgryski/go-rendezvous v0.0.0-20200823014737-9f7001d12a5f // indirect
	github.com/klauspost/compress v1.17.9 // indirect
	github.com/klauspost/cpuid/v2 v2.2.8 // indirect
	github.com/libdns/libdns v0.2.2 // indirect
	github.com/mholt/acmez/v2 v2.0.3 // indirect
	github.com/miekg/dns v1.1.62 // indirect
	github.com/munnerz/goautoneg v0.0.0-20191010083416-a7dc8b61c822 // indirect
	github.com/oschwald/maxminddb-golang v1.13.0 // indirect
	github.com/prometheus/client_model v0.6.1 // indirect
	github.com/prometheus/common v0.59.1 // indirect
	github.com/prometheus/procfs v0.15.1 // indirect
	github.com/zeebo/blake3 v0.2.4 // indirect
	go.uber.org/multierr v1.11.0 // indirect
	go.uber.org/zap v1.27.0 // indirect
	golang.org/x/crypto v0.27.0 // indirect
	golang.org/x/mod v0.18.0 // indirect
	golang.org/x/net v0.29.0 // indirect
	golang.org/x/sync v0.8.0 // indirect
	golang.org/x/sys v0.25.0 // indirect
	golang.org/x/text v0.18.0 // indirect
	golang.org/x/tools v0.22.0 // indirect
	google.golang.org/protobuf v1.34.2 // indirect
)
